"Language.Code","fallback","en-GB","en-US","ru"
"Language.Name.English",,"English",,"Russian"
"Language.Name.Native",,"English",,"Русский"
"Language.NameFull.English",,"English of United Kingdom","English of United States of America","Russian"
"Language.NameFull.Native",,"English of United Kingdom","English of United States of America","Русский"
"Language.Plural",,1,1,7

"Language.Priority",,100,0,0
"Language.Fallback",,,en-GB,
"Language.Menu",,"English/United Kingdom","English/United States","Русский"

"OneArgument",,"Argument {0}",,"Аргумент {0}"
"Version",,"Version {VersionMajor}.{VersionMinor}",,"Версия {VersionMajor}.{VersionMinor}"

"Title",,"Localizer usage example",,"Пример использования Localizer'а"
"Ok",,"Ok",,"ОК"
"Close",,"Close",,"Закрыть"
"Language",,"Language",,"Язык"
"Sex",,"Sex",,"Пол"
"Sex.Male",,"Male",,"Мужской"
"Sex.Female",,"Female",,"Женский"
"Count",,"Count",,"Количество"

"Description",,"I left my flat to buy {MyCount} biscuit{Plural(MyCount, , '', 's')} at the shop.","I left my apartment yo buy {MyCount} cookie{Plural(MyCount, , '', 's')} at the store.","Я выш{Sex(MySex, 'ла', 'ел')} из квартиры чтобы купить {MyCount} печен{Plural(MyCount, , 'ьку', 'ьки', 'ек')} в магазине."