"Language.Code","fallback","en-GB","en-US","ru"
"Language.Name.English",,"English",,"Russian"
"Language.Name.Native",,"English",,"Русский"
"Language.NameFull.English",,"English of United Kingdom","English of United States of America","Russian"
"Language.NameFull.Native",,"English of United Kingdom","English of United States of America","Русский"
"Language.Plural",,1,1,7

"Language.Priority",,100,0,0
"Language.Fallback",,,en-GB,
"Language.Menu",,"English/United Kingdom","English/United States","Русский"

"OneArgument",,"Argument {#0}",,"Аргумент {#0}"
"TwoArguments",,"Argument {#0} {#1}",,"Аргумент {#0} {#1}"
"Version",,"Version {VersionMajor}.{VersionMinor}",,"Версия {VersionMajor}.{VersionMinor}"